…
``` r
fas_df=
  left_join(pups_df, litters_df, by = "litter_number")
fas_df
```

    ## # A tibble: 313 × 14
    ##    litter_number   sex pd_ears pd_eyes pd_pivot pd_walk dose  day_of_tx
    ##    <chr>         <dbl>   <dbl>   <dbl>    <dbl>   <dbl> <chr> <chr>    
    ##  1 #85               1       4      13        7      11 Con   7        
    ##  2 #85               1       4      13        7      12 Con   7        
    ##  3 #1/2/95/2         1       5      13        7       9 Con   7        
    ##  4 #1/2/95/2         1       5      13        8      10 Con   7        
    ##  5 #5/5/3/83/3-3     1       5      13        8      10 Con   7        
    ##  6 #5/5/3/83/3-3     1       5      14        6       9 Con   7        
    ##  7 #5/4/2/95/2       1      NA      14        5       9 Con   7        
    ##  8 #4/2/95/3-3       1       4      13        6       8 Con   7        
    ##  9 #4/2/95/3-3       1       4      13        7       9 Con   7        
    ## 10 #2/2/95/3-2       1       4      NA        8      10 Con   7        
    ## # ℹ 303 more rows
    ## # ℹ 6 more variables: gd0_weight <dbl>, gd18_weight <dbl>, gd_of_birth <dbl>,
    ## #   pups_born_alive <dbl>, pups_dead_birth <dbl>, pups_survive <dbl>
…
